[
  {
    "image": "../images/stuffed-toys/breadMan.jpeg",
    "title": "Stuffed Bread man",
    "rating": 4,
    "reviews": 2,
    "price": 18,
    "stock": 20,
    "description": "Here is bread man, an ingenious croissant who wants to be by your side",
    "alternatives": ["../images/stuffed-toys/breadMan.jpeg"]
  },

  {
    "image": "../images/stuffed-toys/cowMuu.jpeg",
    "title": "Stuffed Muu cow",
    "rating": 5,
    "reviews": 10,
    "price": 8.99,
    "stock": 40,
    "description": "the Muu cow will be the one who accompanies you with its enviable softness and its beautiful bovine spots",
    "alternatives": ["../images/stuffed-toys/cowMuu.jpeg"]
  },

  {
    "image": "../images/stuffed-toys/cowMuu.jpeg",
    "title": "little Doge",
    "rating": 0,
    "reviews": 0,
    "price": 23.99,
    "stock": 0,
    "description": "\nThe stuffed doge is the perfect mix between the tender and the fluffy, perfect to have it in front of you all day",
    "alternatives": ["../images/stuffed-toys/cowMuu.jpeg"]
  },

  {
    "image": "../images/stuffed-toys/kitty.jpeg",
    "title": "sleepy kitty",
    "rating": 4,
    "reviews": 82,
    "price": 10.99,
    "stock": 11,
    "description": "the sleepy kitty a stuffed animal so cute and beautiful that it makes you want to squish it but... and you can do it!",
    "alternatives": ["../images/stuffed-toys/kitty.jpeg"]
  },

  {
    "image": "../images/stuffed-toys/littleBird.jpeg",
    "title": "littleBird stuffed",
    "rating": 4,
    "reviews": 4,
    "price": 4,
    "stock": 100,
    "description": "The cute and portable little bird will be a way to have fun everywhere",
    "alternatives": ["../images/stuffed-toys/littleBird.jpeg"]
  },

  {
    "image": "../images/stuffed-toys/salamandra.jpeg",
    "title": "stuffed axolotl",
    "rating": 5,
    "reviews": 10,
    "price": 11.99,
    "stock": 2,
    "description": "\nThe small axolotl with its imposing and tender presence will be a good piece for any aquatic collection of stuffed animals.",
    "alternatives": ["../images/stuffed-toys/salamandra.jpeg"]
  },

  {
    "image": "../images/stuffed-toys/sheep.jpeg",
    "title": "Stuffed Baby sheep",
    "rating": 5,
    "reviews": 13,
    "price": 12.99,
    "stock": 19,
    "description": "The cute little sheep will help your children hug her and play with her for better dreams",
    "alternatives": ["../images/stuffed-toys/sheep.jpeg"]
  },

  {
    "image": "../images/stuffed-toys/TRex.jpeg",
    "title": "Little TRex",
    "rating": 3,
    "reviews": 3,
    "price": 7,
    "stock": 21,
    "description": "The wild but cuddly trex plush will be there for your children",
    "alternatives": ["../images/stuffed-toys/TRex.jpeg"]
  },

  {
    "image": "../images/stuffed-toys/uglyFish.jpeg",
    "title": "Handsome Ugly Fish",
    "rating": 5,
    "reviews": 2,
    "price": 11.99,
    "stock": 12,
    "description": "for the moments in which you feel ugly the beautiful ugly fish is for you",
    "alternatives": ["../images/stuffed-toys/uglyFish.jpeg"]
  }
]